{
	"name": "Billboard",
	"desc": "Jamf Billboard is a tvOS app that cycles through a defined group of images on Apple TV devices with tvOS 12.0 or later that are managed by Jamf Pro. It can also display a watermark in the corners of the screen.",
	"link": "https://github.com/jamf/billboard"
}